%YAML 1.1
%TAG !u! tag:unity3d.com,2011:
--- !u!114 &3462684665776723319
MonoBehaviour:
  m_ObjectHideFlags: 0
  m_CorrespondingSourceObject: {fileID: 0}
  m_PrefabInstance: {fileID: 0}
  m_PrefabAsset: {fileID: 0}
  m_GameObject: {fileID: 2738067851861711546}
  m_Enabled: 1
  m_EditorHideFlags: 0
  m_Script: {fileID: 11500000, guid: a44cf63ce303d8a4da1a1a66b3b28d4d, type: 3}
  m_Name: 
  m_EditorClassIdentifier: 
--- !u!114 &7140992458154941368
MonoBehaviour:
  m_ObjectHideFlags: 0
  m_CorrespondingSourceObject: {fileID: 0}
  m_PrefabInstance: {fileID: 0}
  m_PrefabAsset: {fileID: 0}
  m_GameObject: {fileID: 2738067851861711546}
  m_Enabled: 1
  m_EditorHideFlags: 0
  m_Script: {fileID: 11500000, guid: b952adce2a3d0f3468dc5dd7eacf55d4, type: 3}
  m_Name: 
  m_EditorClassIdentifier: 
  Speed: 0
--- !u!1001 &6259580317157098419
PrefabInstance:
  m_ObjectHideFlags: 0
  serializedVersion: 2
  m_Modification:
    m_TransformParent: {fileID: 0}
    m_Modifications:
    - target: {fileID: -6057140222963153312, guid: ab7ea9b1b8df8f9458e621c2c2c57a81,
        type: 3}
      propertyPath: m_Controller
      value: 
      objectReference: {fileID: 9100000, guid: 2bd0ea090b531054bb52d3492aafc1f8, type: 2}
    - target: {fileID: -4216859302048453862, guid: ab7ea9b1b8df8f9458e621c2c2c57a81,
        type: 3}
      propertyPath: m_LocalPosition.x
      value: 0
      objectReference: {fileID: 0}
    - target: {fileID: -4216859302048453862, guid: ab7ea9b1b8df8f9458e621c2c2c57a81,
        type: 3}
      propertyPath: m_LocalPosition.y
      value: 0
      objectReference: {fileID: 0}
    - target: {fileID: -4216859302048453862, guid: ab7ea9b1b8df8f9458e621c2c2c57a81,
        type: 3}
      propertyPath: m_LocalPosition.z
      value: 0
      objectReference: {fileID: 0}
    - target: {fileID: -4216859302048453862, guid: ab7ea9b1b8df8f9458e621c2c2c57a81,
        type: 3}
      propertyPath: m_LocalRotation.x
      value: 0
      objectReference: {fileID: 0}
    - target: {fileID: -4216859302048453862, guid: ab7ea9b1b8df8f9458e621c2c2c57a81,
        type: 3}
      propertyPath: m_LocalRotation.y
      value: 0.7071068
      objectReference: {fileID: 0}
    - target: {fileID: -4216859302048453862, guid: ab7ea9b1b8df8f9458e621c2c2c57a81,
        type: 3}
      propertyPath: m_LocalRotation.z
      value: 0
      objectReference: {fileID: 0}
    - target: {fileID: -4216859302048453862, guid: ab7ea9b1b8df8f9458e621c2c2c57a81,
        type: 3}
      propertyPath: m_LocalRotation.w
      value: 0.7071068
      objectReference: {fileID: 0}
    - target: {fileID: -4216859302048453862, guid: ab7ea9b1b8df8f9458e621c2c2c57a81,
        type: 3}
      propertyPath: m_RootOrder
      value: 0
      objectReference: {fileID: 0}
    - target: {fileID: -4216859302048453862, guid: ab7ea9b1b8df8f9458e621c2c2c57a81,
        type: 3}
      propertyPath: m_LocalEulerAnglesHint.x
      value: 0
      objectReference: {fileID: 0}
    - target: {fileID: -4216859302048453862, guid: ab7ea9b1b8df8f9458e621c2c2c57a81,
        type: 3}
      propertyPath: m_LocalEulerAnglesHint.y
      value: 90
      objectReference: {fileID: 0}
    - target: {fileID: -4216859302048453862, guid: ab7ea9b1b8df8f9458e621c2c2c57a81,
        type: 3}
      propertyPath: m_LocalEulerAnglesHint.z
      value: 0
      objectReference: {fileID: 0}
    - target: {fileID: -927199367670048503, guid: ab7ea9b1b8df8f9458e621c2c2c57a81,
        type: 3}
      propertyPath: m_Name
      value: BackgroundDinoAnimated
      objectReference: {fileID: 0}
    - target: {fileID: 5612938076178550217, guid: ab7ea9b1b8df8f9458e621c2c2c57a81,
        type: 3}
      propertyPath: m_Materials.Array.data[0]
      value: 
      objectReference: {fileID: 2100000, guid: e278a35f11cb71b4aa36bcafedd40f72, type: 2}
    m_RemovedComponents: []
  m_SourcePrefab: {fileID: 100100000, guid: ab7ea9b1b8df8f9458e621c2c2c57a81, type: 3}
--- !u!1 &2738067851861711546 stripped
GameObject:
  m_CorrespondingSourceObject: {fileID: -927199367670048503, guid: ab7ea9b1b8df8f9458e621c2c2c57a81,
    type: 3}
  m_PrefabInstance: {fileID: 6259580317157098419}
  m_PrefabAsset: {fileID: 0}
